{
    "Version": "2012-10-17",
    "Statement": [
        {
            "Effect": "Allow",
            "Action": [
                "logs:CreateLogGroup",
                "logs:CreateLogStream",
                "logs:PutLogEvents"
            ],
            "Resource": [
                "arn:aws:logs:*:*:*"
            ]
        },
        {
            "Action": [
                "dynamodb:putItem"
            ],
            "Effect": "Allow",
            "Resource": "arn:aws:dynamodb:us-west-2:HIDDEN:table/dyndns"
        },
        {
            "Action": [
                "route53:ChangeResourceRecordSets"
            ],
            "Effect": "Allow",
            "Resource": "arn:aws:route53:::hostedzone/HIDDEN"
        }
    ]
}
